Final’s Code
…
## Warning: Expected 2 pieces. Missing pieces filled with `NA` in 11863 rows [1, 2, 3, 4,
## 5, 6, 7, 8, 9, 10, 11, 12, 13, 14, 15, 16, 17, 18, 19, 20, ...].

# Putting the data in parentheses into the Subspecies column then getting rid of the parentheses in the Species column to clean it up. Regex came from ChatGPT
rawdata <- rawdata %>% 
  extract(Species_name, into = "Subspecies", regex = "\\(([^)]+)\\)", remove = F) %>% 
  mutate(Species_name = str_remove(Species_name, "\\(caudata\\)|\\(lanulosa\\)|\\(major\\)|\\(supina\\)|\\(mid\\)|\\(elatior\\)"))

# This code checks the actual data and looks for unique values
rawdata %>% 
  select(Species_name) %>% 
  arrange(Species_name) %>% 
  distinct()

## # A tibble: 114 × 1
##    Species_name              
##    <chr>                     
##  1 "Achillea millefolium "   
##  2 "Agropyron repens"        
##  3 "Agropyron smithii"       
##  4 "Agrostis alba"           
##  5 "Agrostis scabra"         
##  6 "Ambrosia artemisiifolia "
##  7 "Amorpha canescens"       
##  8 "Andropogon gerardi"      
##  9 "Aristida basiramea"      
## 10 "Artemisia campestris "   
## # ℹ 104 more rows
…
